f617e7e05b02c76aa17d7ce49883d195  tl866a-3.2.47.dat
3feee21270270e3e0a67a736609c7cb1  tl866a-3.2.51.dat
8543764cc11d1f4028bca7fdbd0d1f6a  tl866a-3.2.56.dat
c85ee8eec2a0c2efb3e8bcfba69619c4  tl866a-3.2.58.dat
d2d38bfd116da08f7f9db462eea9afdd  tl866a-3.2.59.dat
0e5f84be46dc9997978ebd6fc0f32a30  tl866a-3.2.60.dat
4a4c0d10ced0d925a9188e42bd2aa746  tl866a-3.2.61.dat
877f0bb59eb3d544488070d7344bdefb  tl866a-3.2.62.dat
92bb4391e3d89cf8100e288b058c04b0  tl866a-3.2.63.dat
cfab2ece5410ca7998bb08af75755c38  tl866a-3.2.66.dat
af23a27a552d055bab9ebe23e40c748c  tl866a-3.2.68.dat
128436be4aba76be6f1b18fb70b06fe5  tl866a-3.2.69.dat
47efc6a48d980f71cb9445cf9b8b18c7  tl866a-3.2.72.dat
9c10b40ea6ba00e6643066dc95a33541  tl866a-3.2.80.dat
c95228b06790eae67f38fb4038a89d48  tl866a-3.2.81.dat
29ba75a19de23d8182aa7adb02bae2f7  tl866a-3.2.82.dat
dcf1533725e599845310948f70443971  tl866a-3.2.85.dat
82d39b8feb9763a948a73d70ef776b63  tl866a-3.2.86.dat
